{
    "name": "MasterActions",
    "maps": [
        {
            "name": "Player",
            "id": "40e659b4-e033-40df-86ad-eab0a8a26917",
            "actions": [
                {
                    "name": "Shoot",
                    "type": "Button",
                    "id": "3168fc19-975d-4aef-a7fc-f851855bacfc",
                    "expectedControlType": "",
                    "processors": "",
                    "interactions": ""
                },
                {
                    "name": "Movement",
                    "type": "Value",
                    "id": "0cce4652-708d-48ce-a7be-250aefc4f6a4",
                    "expectedControlType": "Vector2",
                    "processors": "",
                    "interactions": ""
                }
            ],
            "bindings": [
                {
                    "name": "",
                    "id": "eea8c4f6-2ac9-43dd-9a92-54d8e9cd0ef0",
                    "path": "<Mouse>/leftButton",
                    "interactions": "",
                    "processors": "",
                    "groups": "",
                    "action": "Shoot",
                    "isComposite": false,
                    "isPartOfComposite": false
                },
                {
                    "name": "",
                    "id": "c2365c64-da23-4cdb-a785-359e5fabc3b9",
                    "path": "<Gamepad>/buttonNorth",
                    "interactions": "",
                    "processors": "",
                    "groups": "",
                    "action": "Shoot",
                    "isComposite": false,
                    "isPartOfComposite": false
                },
                {
                    "name": "",
                    "id": "f4d2d91b-8016-4948-9d79-f34876323147",
                    "path": "<Gamepad>/leftStick",
                    "interactions": "",
                    "processors": "",
                    "groups": "",
                    "action": "Movement",
                    "isComposite": false,
                    "isPartOfComposite": false
                },
                {
                    "name": "Keyboard",
                    "id": "77ebf27a-d524-4898-aa04-fd2f121597a1",
                    "path": "2DVector",
                    "interactions": "",
                    "processors": "",
                    "groups": "",
                    "action": "Movement",
                    "isComposite": true,
                    "isPartOfComposite": false
                },
                {
                    "name": "up",
                    "id": "073094ff-9a06-4249-83d3-72e48fb4abd4",
                    "path": "<Keyboard>/w",
                    "interactions": "",
                    "processors": "",
                    "groups": "",
                    "action": "Movement",
                    "isComposite": false,
                    "isPartOfComposite": true
                },
                {
                    "name": "down",
                    "id": "68e85123-2a94-4815-9a25-ae4edba32225",
                    "path": "<Keyboard>/s",
                    "interactions": "",
                    "processors": "",
                    "groups": "",
                    "action": "Movement",
                    "isComposite": false,
                    "isPartOfComposite": true
                },
                {
                    "name": "left",
                    "id": "90c99461-23c4-43d3-92ac-27c7dd6b2b26",
                    "path": "<Keyboard>/a",
                    "interactions": "",
                    "processors": "",
                    "groups": "",
                    "action": "Movement",
                    "isComposite": false,
                    "isPartOfComposite": true
                },
                {
                    "name": "right",
                    "id": "b6f17a02-3bf7-4bd1-b489-82b647eb81b8",
                    "path": "<Keyboard>/d",
                    "interactions": "",
                    "processors": "",
                    "groups": "",
                    "action": "Movement",
                    "isComposite": false,
                    "isPartOfComposite": true
                }
            ]
        }
    ],
    "controlSchemes": []
}